setup 2.5.58 9.el5 noarch
basesystem 8.0 5.1.1.el5.centos noarch
cracklib-dicts 2.8.9 3.3 x86_64
tzdata 2016c 1.el5 x86_64
glibc 2.5 123.el5_11.3 x86_64
zlib 1.2.3 7.el5 x86_64
popt 1.10.2.3 36.el5_11 x86_64
glib2 2.12.3 4.el5_3.1 x86_64
audit-libs 1.8 2.el5 x86_64
bash 3.2 33.el5_11.4 x86_64
info 4.8 14.el5 x86_64
readline 5.1 3.el5 x86_64
nss 3.19.1 4.el5_11 x86_64
elfutils-libelf 0.137 3.el5 x86_64
libattr 2.4.32 1.1 x86_64
libstdc++ 4.1.2 55.el5 x86_64
iproute 2.6.18 15.el5 x86_64
grep 2.5.1 55.el5 x86_64
diffutils 2.8.1 16.el5 x86_64
gawk 3.1.5 16.el5 x86_64
less 436 9.el5 x86_64
procps 3.2.7 26.el5 x86_64
crontabs 1.10 11.el5 noarch
libxml2 2.6.26 2.1.25.el5_11 x86_64
sgpio 1.2.0_10 2.el5 x86_64
mingetty 1.07 5.2.2 x86_64
libcap 1.10 26 x86_64
keyutils-libs 1.2 1.el5 x86_64
centos-release 5 11.el5.centos x86_64
python-libs 2.4.3 56.el5 x86_64
cracklib 2.8.9 3.3 x86_64
device-mapper-event 1.02.67 2.el5_11.1 x86_64
net-tools 1.60 83.el5_10 x86_64
libutempter 1.1.4 4.el5 x86_64
tar 1.15.1 32.el5_8 x86_64
SysVinit 2.86 17.el5 x86_64
e2fsprogs 1.39 37.el5 x86_64
kpartx 0.4.7 64.el5_11 x86_64
device-mapper-multipath 0.4.7 64.el5_11 x86_64
logrotate 3.7.4 14 x86_64
MAKEDEV 3.23 1.2 x86_64
coreutils 5.97 34.el5_8.1 x86_64
udev 095 14.33.el5_11 x86_64
module-init-tools 3.3 0.pre3.1.63.el5 x86_64
mcstrans 0.2.11 3.el5 x86_64
initscripts 8.45.45 1.el5.centos x86_64
rpm-libs 4.4.2.3 36.el5_11 x86_64
bind-libs 9.3.6 25.P1.el5_11.8 x86_64
python-elementtree 1.2.6 5 x86_64
m2crypto 0.16 9.el5 x86_64
yum-metadata-parser 1.1.2 4.el5 x86_64
yum 3.2.22 40.el5.centos noarch
libuser 0.54.7 3.el5 x86_64
bind-utils 9.3.6 25.P1.el5_11.8 x86_64
vim-minimal 7.0.109 7.2.el5 x86_64
rootfiles 8.1 1.1.1 noarch
libgcc 4.1.2 55.el5 x86_64
filesystem 2.4.0 3.el5.centos x86_64
nash 5.1.19.6 82.el5 x86_64
termcap 5.5 1.20060701.1 noarch
glibc-common 2.5 123.el5_11.3 x86_64
mktemp 1.5 24.el5 x86_64
chkconfig 1.3.30.2 2.el5 x86_64
nspr 4.10.8 2.el5_11 x86_64
bzip2-libs 1.0.3 6.el5_5 x86_64
libtermcap 2.0.8 46.1 x86_64
ncurses 5.5 24.20060715 x86_64
libsepol 1.15.2 3.el5 x86_64
sqlite 3.3.6 7 x86_64
sed 4.1.5 8.el5 x86_64
expat 1.95.8 11.el5_8 x86_64
libacl 2.2.39 8.el5 x86_64
db4 4.3.29 10.el5_5.2 x86_64
pcre 6.6 9.el5 x86_64
hmaccalc 0.9.6 4.el5 x86_64
binutils 2.17.50.0.6 26.el5 x86_64
cpio 2.6 26.el5 x86_64
gzip 1.3.5 13.el5.centos x86_64
iputils 20020927 46.el5 x86_64
libsysfs 2.1.0 1.el5 x86_64
cyrus-sasl-lib 2.1.22 7.el5_8.1 x86_64
gdbm 1.8.0 28.el5 x86_64
ethtool 6 4.el5 x86_64
centos-release-notes 5.11 0 x86_64
openssl 0.9.8e 39.el5_11 x86_64
python 2.4.3 56.el5 x86_64
iscsi-initiator-utils 6.2.0.872 16.el5 x86_64
dmraid-events 1.0.0.rc13 65.el5 x86_64
shadow-utils 4.0.17 23.el5 x86_64
psmisc 22.2 11 x86_64
findutils 4.2.27 6.el5 x86_64
e2fsprogs-libs 1.39 37.el5 x86_64
lvm2 2.02.88 13.el5 x86_64
dmraid 1.0.0.rc13 65.el5 x86_64
device-mapper 1.02.67 2.el5_11.1 x86_64
libselinux 1.33.4 5.7.el5.centos x86_64
krb5-libs 1.6.1 80.el5_11 x86_64
pam 0.99.6.2 14.el5_11 x86_64
util-linux 2.13 0.59.el5_8 x86_64
mkinitrd 5.1.19.6 82.el5 x86_64
rsyslog 3.22.1 7.el5 x86_64
rpm 4.4.2.3 36.el5_11 x86_64
rpm-python 4.4.2.3 36.el5_11 x86_64
python-iniparse 0.2.3 6.el5 noarch
python-sqlite 1.1.7 1.2.1 x86_64
python-urlgrabber 3.1.0 6.el5 noarch
yum-fastestmirror 1.1.16 21.el5.centos noarch
openldap 2.3.43 29.el5_11 x86_64
passwd 0.73 2 x86_64
libselinux-utils 1.33.4 5.7.el5.centos x86_64
